{"albums" : [{
  "id" : 1,
  "name" : "Una Decisión",
  "songs" : [{
    "id" : 9,
    "name" : "Mi Meta es Servir",
    "media" : {
      "download" : { "url" : "https://music.wixstatic.com/preview/ad28ec_e55d419d8362425a97d2583d349af1af-128.mp3"}
    },
    "lyrics" : ""
  },{
    "id" : 10,
    "name" : "Pedrito",
    "media" : {
      "download" : { "url" : "https://music.wixstatic.com/preview/ad28ec_d7795d635b124e66980e55d5a32e5720-128.mp3"}
    },
    "lyrics" : ""
  },{
    "id" : 11,
    "name" : "Los Jóvenes son el Presente",
    "media" : {
      "download" : { "url" : "https://music.wixstatic.com/preview/ad28ec_03b105419a384079914415ebea550eed-128.mp3"}
    },
    "lyrics" : ""
  },{
    "id" : 12,
    "name" : "Encontrando mi Destino",
    "media" : {
      "download" : { "url" : "https://music.wixstatic.com/preview/ad28ec_a3477b90c08a4744a16d04d1572315fa-128.mp3"}
    },
    "lyrics" : ""
  },{
    "id" : 13,
    "name" : "Amigo",
    "media" : {
      "download" : { "url" : "https://music.wixstatic.com/preview/ad28ec_bdcddbd1e71f46378abda07e0598d970-128.mp3"}
    },
    "lyrics" : ""
  },{
    "id" : 14,
    "name" : "Nueva Raza",
    "media" : {
      "download" : { "url" : "https://music.wixstatic.com/preview/ad28ec_959fd056970d4e33a0c1cbe883987ba6-128.mp3"}
    },
    "lyrics" : ""
  },{
    "id" : 15,
    "name" : "Una Decisión",
    "media" : {
      "download" : { "url" : "https://music.wixstatic.com/preview/ad28ec_109162c88fff4130b1c6a9e3f129033d-128.mp3"}
    },
    "lyrics" : ""
  },{
    "id" : 16,
    "name" : "Debo Seguir",
    "media" : {
      "download" : { "url" : "https://music.wixstatic.com/preview/ad28ec_9571b684f9e6475ea55a6951202bf05b-128.mp3"}
    },
    "lyrics" : ""
  },{
    "id" : 17,
    "name" : "Jinete",
    "media" : {
      "download" : { "url" : "https://music.wixstatic.com/preview/ad28ec_98cdc51c977d4d119b1f9ccc03a20330-128.mp3"}
    },
    "lyrics" : ""
  }]
},{
  "id" : 2,
  "name" : "Sembrando Futuro",
  "songs" : [{
    "id" : 18,
    "name" : "La Fiesta del Pueblo",
    "media" : {
      "download" : { "url" : "https://music.wixstatic.com/preview/ad28ec_a9ffde19a7454c17b4613d6bfe0dc2ab-128.mp3"}
    },
    "lyrics" : ""
  },{
    "id" : 19,
    "name" : "Sembrando Futuro",
    "media" : {
      "download" : { "url" : "https://music.wixstatic.com/preview/ad28ec_2c195ff8b1eb4df49e64c255421ef959-128.mp3"}
    },
    "lyrics" : ""
  },{
    "id" : 20,
    "name" : "La Llanura de la Libertad",
    "media" : {
      "download" : { "url" : "https://music.wixstatic.com/preview/ad28ec_7b763033af784a47b2723ed191b97326-128.mp3"}
    },
    "lyrics" : ""
  },{
    "id" : 21,
    "name" : "Carito",
    "media" : {
      "download" : { "url" : "https://music.wixstatic.com/preview/ad28ec_93fe72f130424383a54f8045c5dca6c0-128.mp3"}
    },
    "lyrics" : ""
  },{
    "id" : 22,
    "name" : "Luces y Colores",
    "media" : {
      "download" : { "url" : "https://music.wixstatic.com/preview/ad28ec_4dbea4a863924546a58ddc6466d4d54f-128.mp3"}
    },
    "lyrics" : ""
  },{
    "id" : 23,
    "name" : "Dulces Melodías",
    "media" : {
      "download" : { "url" : "https://music.wixstatic.com/preview/ad28ec_4685c9ad64b64217a369b21cce9c11c9-128.mp3"}
    },
    "lyrics" : ""
  },{
    "id" : 24,
    "name" : "Hermosa Flor",
    "media" : {
      "download" : { "url" : "https://music.wixstatic.com/preview/ad28ec_5b23f7b310be4d06854ebe227a434579-128.mp3"}
    },
    "lyrics" : ""
  },{
    "id" : 25,
    "name" : "El Son de la Exploración",
    "media" : {
      "download" : { "url" : "https://music.wixstatic.com/preview/ad28ec_08c58a843b1f4f989b0b547def1df612-128.mp3"}
    },
    "lyrics" : ""
  },{
    "id" : 26,
    "name" : "Despertar",
    "media" : {
      "download" : { "url" : "https://music.wixstatic.com/preview/ad28ec_4a1a822e72ef48718c14d17e28d7f08e-128.mp3"}
    },
    "lyrics" : ""
  },{
    "id" : 27,
    "name" : "Ritmo Celestial",
    "media" : {
      "download" : { "url" : "https://music.wixstatic.com/preview/ad28ec_82799b5d62f5455fa3daebc17edf084a-128.mp3"}
    },
    "lyrics" : ""
  },{
    "id" : 28,
    "name" : "El Árbol de la Creación",
    "media" : {
      "download" : { "url" : "https://music.wixstatic.com/preview/ad28ec_f18ca6c5342d468cb7ae0624cbca485e-128.mp3"}
    },
    "lyrics" : ""
  },{
    "id" : 29,
    "name" : "Halcón Real",
    "media" : {
      "download" : { "url" : "https://music.wixstatic.com/preview/ad28ec_4352d2560b6f462ba5608b3ce25c4c25-128.mp3"}
    },
    "lyrics" : ""
  }]
},{
  "id" : 3,
  "name" : "Avanzo con Valor",
  "songs" : [{
    "id" : 6,
    "name" : "Avanzo con Valor",
    "media" : {
      "download" : { "url" : "https://music.wixstatic.com/preview/ad28ec_bc910f1553a648d486395c34e2714657-128.mp3" }
    },
    "lyrics" : ""
  },{
    "id" : 3,
    "name" : "Espejo",
    "media" : {
      "download" : { "url" : "https://music.wixstatic.com/preview/ad28ec_4a41ce59cdf64442a2c530208917994f-128.mp3" }
    },
    "lyrics" : ""
  },{
    "id" : 7,
    "name" : "Caminando",
    "media" : {
      "download" : { "url" : "https://music.wixstatic.com/preview/ad28ec_ee9d35c7b3b1459cb1dd9663c1981a34-128.mp3" }
    },
    "lyrics" : ""
  },{
    "id" : 4,
    "name" : "Manantial",
    "media" : {
      "download" : { "url" : "https://music.wixstatic.com/preview/ad28ec_0d230c61bbc84333adc1b55bfa74a927-128.mp3" }
    },
    "lyrics" : ""
  },{
    "id" : 1,
    "name" : "Ilumina un Corazón",
    "media" : {
      "download" : { "url" : "https://music.wixstatic.com/preview/ad28ec_e420916c6acb4ba78156d0ce77426511-128.mp3" }
    },
    "lyrics" : ""
  },{
    "id" : 2,
    "name" : "Sé Valiente",
    "media" : {
      "download" : { "url" : "https://music.wixstatic.com/preview/ad28ec_3eb5c30c1fe944cf9160cae5cc175807-128.mp3" }
    },
    "lyrics" : ""
  },{
    "id" : 8,
    "name" : "La Fuerza del Amor",
    "media" : {
      "download" : { "url" : "https://music.wixstatic.com/preview/ad28ec_d52ca9f4664844fe842927128bccd0a8-128.mp3" }
    },
    "lyrics" : ""
  }]
},{
  "id" : 4,
  "name" : "Claridad",
  "songs" : [{
    "id" : 33,
    "name" : "Combinando los Talentos",
    "media" : {
      "download" : { "url" : "https://music.wixstatic.com/preview/ad28ec_1efe132437b04bbda5797ffad0d8d78c-128.mp3" }
    },
    "lyrics" : ""
  },{
    "id" : 35,
    "name" : "Claridad",
    "media" : {
      "download" : { "url" : "https://music.wixstatic.com/preview/ad28ec_e4e7d89cc7ec49cea26eeb0d41d0ac2e-128.mp3" }
    },
    "lyrics" : ""
  },{
    "id" : 31,
    "name" : "La Luz del Conocimiento",
    "media" : {
      "download" : { "url" : "https://music.wixstatic.com/preview/ad28ec_57a9e56fbbd44b0ca61cadcb8088f4f8-128.mp3" }
    },
    "lyrics" : ""
  },{
    "id" : 34,
    "name" : "Una Creación Celestial",
    "media" : {
      "download" : { "url" : "https://music.wixstatic.com/preview/ad28ec_febb939468d24457befe141b2045402c-128.mp3" }
    },
    "lyrics" : ""
  },{
    "id" : 36,
    "name" : "Lo que Veo en Ti",
    "media" : {
      "download" : { "url" : "https://music.wixstatic.com/preview/ad28ec_dee7d349a34348b397d2b16827db3232-128.mp3" }
    },
    "lyrics" : ""
  },{
    "id" : 32,
    "name" : "Creados para Amar",
    "media" : {
      "download" : { "url" : "https://music.wixstatic.com/preview/ad28ec_d3ec522604ae473da4149d6bf0840904-128.mp3" }
    },
    "lyrics" : ""
  },{
    "id" : 30,
    "name" : "Esta Amistad",
    "media" : {
      "download" : { "url" : "https://music.wixstatic.com/preview/ad28ec_c71faf6785524e6ca7cc107c23acda91-128.mp3" }
    },
    "lyrics" : ""
  },{
    "id" : 37,
    "name" : "Algo Mejor Vendrá",
    "media" : {
      "download" : { "url" : "https://music.wixstatic.com/preview/ad28ec_0f49b27e051e497aa9d3501b96f00bd5-128.mp3" }
    },
    "lyrics" : ""
  },{
    "id" : 5,
    "name" : "Ver Más Allá",
    "media" : {
      "download" : { "url" : "https://music.wixstatic.com/preview/ad28ec_5358b69b77bb4bec990e7f9c8b679f32-128.mp3" }
    },
    "lyrics" : ""
  }]
}]}
